IEEE_double_mult/multiplier_tb/wave.vcd
$date
	Mon Apr 22 20:20:40 2024
$end
$version
	Icarus Verilog
$end
$timescale
	1ns
$end
$scope module tb $end
$var wire 1 ! error $end
$var wire 64 " c [63:0] $end
$var reg 64 # a [63:0] $end
$var reg 64 $ b [63:0] $end
$var reg 64 % c_expect [63:0] $end
$var reg 1 & clk $end
$var integer 32 ' i [31:0] $end
$var integer 32 ( j [31:0] $end
$scope module dut $end
$var wire 64 ) a [63:0] $end
$var wire 64 * b [63:0] $end
$var wire 1 & clk $end
$var wire 64 + c_tmp [63:0] $end
$var wire 64 , c [63:0] $end
$var reg 64 - a_r [63:0] $end
$var reg 64 . b_r [63:0] $end
$var reg 64 / c_r [63:0] $end
$upscope $end
$upscope $end
$enddefinitions $end
#0
$dumpvars
bx /
bx .
bx -
bx ,
bx +
b101100101111101001011111100100011101001101011001101101101110101 *
b0 )
bx (
b0 '
0&
bx %
b101100101111101001011111100100011101001101011001101101101110101 $
b0 #
bx "
0!
$end
#5
b0 +
b101100101111101001011111100100011101001101011001101101101110101 .
b0 -
x!
1&
#10
0!
0&
b0 $
b0 *
b1 '
#15
b0 "
b0 ,
b0 /
b0 .
0!
1&
b0 %
b0 (
#20
0&
b110000001101010011011101010101011010100111010111101011110110100 #
b110000001101010011011101010101011010100111010111101011110110100 )
b10 '
#25
b110000001101010011011101010101011010100111010111101011110110100 -
1&
b1 (
#30
0&
b11111011100110101010101101010100010110001111010110101001001000 $
b11111011100110101010101101010100010110001111010110101001001000 *
b1111111110110111100001110110101101011100111110111001000011100 #
b1111111110110111100001110110101101011100111110111001000011100 )
b11 '
#35
b1100011110100000111100110110111011100010110000111010111111100000 +
b11111011100110101010101101010100010110001111010110101001001000 .
b1111111110110111100001110110101101011100111110111001000011100 -
1&
b10 (
#40
0&
b0 $
b0 *
b111011000100100110110010100100000001111011001001100000110001 #
b111011000100100110110010100100000001111011001001100000110001 )
b100 '
#45
b1100011110100000111100110110111011100010110000111010111111100000 "
b1100011110100000111100110110111011100010110000111010111111100000 ,
b1100011110100000111100110110111011100010110000111010111111100000 /
b0 .
b0 +
b111011000100100110110010100100000001111011001001100000110001 -
1!
1&
b1111011110000010000000001101111101010111001110101110010001111 %
b11 (
#50
0!
0&
b110100100111101010010001001001001011011001001000010110010011100 $
b110100100111101010010001001001001011011001001000010110010011100 *
b10011010111110110000111011110000011011111111100011001010101101 #
b10011010111110110000111011110000011011111111100011001010101101 )
b101 '
#55
b0 "
b0 ,
b0 /
b100011110111101011101011101110101011110111100001001110101101100 +
b110100100111101010010001001001001011011001001000010110010011100 .
b10011010111110110000111011110000011011111111100011001010101101 -
0!
1&
b0 %
b100 (
#60
0&
b0 $
b0 *
b11011011011011001010001110110001100101011101110111001010100111 #
b11011011011011001010001110110001100101011101110111001010100111 )
b110 '
#65
b100011110111101011101011101110101011110111100001001110101101100 "
b100011110111101011101011101110101011110111100001001110101101100 ,
b100011110111101011101011101110101011110111100001001110101101100 /
b0 .
b0 +
b11011011011011001010001110110001100101011101110111001010100111 -
1!
1&
b101000000001100001001110010011110010101010001101111111110011101 %
b101 (
#70
0!
0&
b0 #
b0 )
b111 '
#75
b0 "
b0 ,
b0 /
b0 -
0!
1&
b0 %
b110 (
#80
0&
b111100100010000011001110100110011111000010011010011001100011111 $
b111100100010000011001110100110011111000010011010011001100011111 *
b11010110010000000110011001001110000111110101000000000010001000 #
b11010110010000000110011001001110000111110101000000000010001000 )
b1000 '
#85
b1011111000100111100110001001010010010111101011110010100001111000 +
b111100100010000011001110100110011111000010011010011001100011111 .
b11010110010000000110011001001110000111110101000000000010001000 -
1&
b111 (
#90
0&
b100110111001001010001001100000100100111000100101000001101101111 $
b100110111001001010001001100000100100111000100101000001101101111 *
b10000110011001001000000101110011101011101 #
b10000110011001001000000101110011101011101 )
b1001 '
#95
b1011111000100111100110001001010010010111101011110010100001111000 "
b1011111000100111100110001001010010010111101011110010100001111000 ,
b1011111000100111100110001001010010010111101011110010100001111000 /
b100110111001001010001001100000100100111000100101000001101101111 .
b1111011110111001101100111111100000010100001100001110100001010011 +
b10000110011001001000000101110011101011101 -
1!
1&
b110111010110000100000011000010110100000111001010100011110111010 %
b1000 (
#100
0!
0&
b1011100001101101001100011111100011100100010101101100101001001 $
b1011100001101101001100011111100011100100010101101100101001001 *
b11110011010101010110011100111111110001000001100010011111111101 #
b11110011010101010110011100111111110001000001100010011111111101 )
b1010 '
#105
b1111011110111001101100111111100000010100001100001110100001010011 "
b1111011110111001101100111111100000010100001100001110100001010011 ,
b1111011110111001101100111111100000010100001100001110100001010011 /
b1011100001101101001100011111100011100100010101101100101001001 .
b110101110110111010111101000111000101101000010001101110000100101 +
b11110011010101010110011100111111110001000001100010011111111101 -
1!
1&
b110100101010100001111101000101111001111011101100100110110100 %
b1001 (
#110
0!
0&
b111111111110000000000000000000000000000000000000000000000000000 $
b111111111110000000000000000000000000000000000000000000000000000 *
b0 #
b0 )
b1011 '
#115
b110101110110111010111101000111000101101000010001101110000100101 "
b110101110110111010111101000111000101101000010001101110000100101 ,
b110101110110111010111101000111000101101000010001101110000100101 /
b111111111110000000000000000000000000000000000000000000000000000 .
b0 +
b0 -
1!
1&
b1001111110011110010000101000001110100111111001000000011101110 %
b1010 (
#120
0!
0&
b0 $
b0 *
b111011110110100001001110101011011100100111000001101001111011000 #
b111011110110100001001110101011011100100111000001101001111011000 )
b1100 '
#125
b0 "
b0 ,
b0 /
b0 .
b0 +
b111011110110100001001110101011011100100111000001101001111011000 -
1!
1&
b1111111111111000000000000000000000000000000000000000000000000000 %
b1011 (
#130
0!
0&
b0 #
b0 )
b1101 '
#135
b0 -
1&
b0 %
b1100 (
#140
0&
b10110000001000111010100101111101011101001001101011001110011101 #
b10110000001000111010100101111101011101001001101011001110011101 )
b1110 '
#145
b10110000001000111010100101111101011101001001101011001110011101 -
1&
b1101 (
#150
0&
b1001001010000011010110100101000000110100011101110101110000100 $
b1001001010000011010110100101000000110100011101110101110000100 *
b111001111110010100001011000011100101101011101100110111111110100 #
b111001111110010100001011000011100101101011101100110111111110100 )
b1111 '
#155
b110111011110011010001110100100011111011001011101011010111010000 +
b1001001010000011010110100101000000110100011101110101110000100 .
b111001111110010100001011000011100101101011101100110111111110100 -
1&
b1110 (
#160
0&
b110111000011111100000101110100111101101111111101100011001001 $
b110111000011111100000101110100111101101111111101100011001001 *
b0 #
b0 )
b10000 '
#165
b110111011110011010001110100100011111011001011101011010111010000 "
b110111011110011010001110100100011111011001011101011010111010000 ,
b110111011110011010001110100100011111011001011101011010111010000 /
b110111000011111100000101110100111101101111111101100011001001 .
b0 +
b0 -
1!
1&
b100011001010011000000011011100111010110100111110010111010100111 %
b1111 (
#170
0!
0&
b0 $
b0 *
b101110001111000101000110110111100001000001111011100101000010001 #
b101110001111000101000110110111100001000001111011100101000010001 )
b10001 '
#175
b0 "
b0 ,
b0 /
b0 .
b0 +
b101110001111000101000110110111100001000001111011100101000010001 -
0!
1&
b0 %
b10000 (
#180
0&
b10110100000111001101011110000101111110110010001011010010001001 $
b10110100000111001101011110000101111110110010001011010010001001 *
b101100101010010111001010111001100011000001100101111011111100100 #
b101100101010010111001010111001100011000001100101111011111100100 )
b10010 '
#185
b1010101111011111110010001101001110101011101100101111100100000100 +
b10110100000111001101011110000101111110110010001011010010001001 .
b101100101010010111001010111001100011000001100101111011111100100 -
1&
b10001 (
#190
0&
b10001011110001101110010011101110001100010010100010100111011001 $
b10001011110001101110010011101110001100010010100010100111011001 *
b0 #
b0 )
b10011 '
#195
b1010101111011111110010001101001110101011101100101111100100000100 "
b1010101111011111110010001101001110101011101100101111100100000100 ,
b1010101111011111110010001101001110101011101100101111100100000100 /
b10001011110001101110010011101110001100010010100010100111011001 .
b0 +
b0 -
1!
1&
b100011001101011011010010111011111010000011001111110010100101110 %
b10010 (
#200
0!
0&
b10100 '
